…
~~~
data
~~~
{: .language-r}



~~~
# A tibble: 23,940 × 4
   OMRÅDE      CIVILSTAND    TID    INDHOLD
   <chr>       <chr>         <chr>    <dbl>
 1 All Denmark Never married 2008Q1 2552700
 2 All Denmark Never married 2008Q2 2563134
 3 All Denmark Never married 2008Q3 2564705
 4 All Denmark Never married 2008Q4 2568255
 5 All Denmark Never married 2009Q1 2575185
 6 All Denmark Never married 2009Q2 2584993
 7 All Denmark Never married 2009Q3 2584560
 8 All Denmark Never married 2009Q4 2588198
 9 All Denmark Never married 2010Q1 2593172
10 All Denmark Never married 2010Q2 2604129
# … with 23,930 more rows
…
