…
~~~
# filters observations where village name is "Chirodzo" 
filter(interviews, village == "Chirodzo")
~~~
{: .language-r}



~~~
# A tibble: 39 × 14
   key_ID village interview_date      no_membrs years_liv respondent_wall… rooms
    <dbl> <chr>   <dttm>                  <dbl>     <dbl> <chr>            <dbl>
 1      8 Chirod… 2016-11-16 00:00:00        12        70 burntbricks          3
 2      9 Chirod… 2016-11-16 00:00:00         8         6 burntbricks          1
 3     10 Chirod… 2016-12-16 00:00:00        12        23 burntbricks          5
 4     34 Chirod… 2016-11-17 00:00:00         8        18 burntbricks          3
 5     35 Chirod… 2016-11-17 00:00:00         5        45 muddaub              1
 6     36 Chirod… 2016-11-17 00:00:00         6        23 sunbricks            1
 7     37 Chirod… 2016-11-17 00:00:00         3         8 burntbricks          1
 8     43 Chirod… 2016-11-17 00:00:00         7        29 muddaub              1
 9     44 Chirod… 2016-11-17 00:00:00         2         6 muddaub              1
10     45 Chirod… 2016-11-17 00:00:00         9         7 muddaub              1
# … with 29 more rows, and 7 more variables: memb_assoc <chr>,
#   affect_conflicts <chr>, liv_count <dbl>, items_owned <chr>, no_meals <dbl>,
#   months_lack_food <chr>, instanceID <chr>
…
~~~
# filters observations with "|" logical operator
# output dataframe satisfies AT LEAST ONE of the specified conditions
filter(interviews, village == "Chirodzo" | village == "Ruaca")
~~~
{: .language-r}



~~~
# A tibble: 88 × 14
   key_ID village interview_date      no_membrs years_liv respondent_wall… rooms
    <dbl> <chr>   <dttm>                  <dbl>     <dbl> <chr>            <dbl>
 1      8 Chirod… 2016-11-16 00:00:00        12        70 burntbricks          3
 2      9 Chirod… 2016-11-16 00:00:00         8         6 burntbricks          1
 3     10 Chirod… 2016-12-16 00:00:00        12        23 burntbricks          5
 4     23 Ruaca   2016-11-21 00:00:00        10        20 burntbricks          4
 5     24 Ruaca   2016-11-21 00:00:00         6         4 burntbricks          2
 6     25 Ruaca   2016-11-21 00:00:00        11         6 burntbricks          3
 7     26 Ruaca   2016-11-21 00:00:00         3        20 burntbricks          2
 8     27 Ruaca   2016-11-21 00:00:00         7        36 burntbricks          2
 9     28 Ruaca   2016-11-21 00:00:00         2         2 muddaub              1
10     29 Ruaca   2016-11-21 00:00:00         7        10 burntbricks          2
# … with 78 more rows, and 7 more variables: memb_assoc <chr>,
#   affect_conflicts <chr>, liv_count <dbl>, items_owned <chr>, no_meals <dbl>,
#   months_lack_food <chr>, instanceID <chr>
…
~~~
interviews %>%
    filter(village == "Chirodzo") %>%
    select(village:respondent_wall_type)
~~~
{: .language-r}



~~~
# A tibble: 39 × 5
   village  interview_date      no_membrs years_liv respondent_wall_type
   <chr>    <dttm>                  <dbl>     <dbl> <chr>               
 1 Chirodzo 2016-11-16 00:00:00        12        70 burntbricks         
 2 Chirodzo 2016-11-16 00:00:00         8         6 burntbricks         
 3 Chirodzo 2016-12-16 00:00:00        12        23 burntbricks         
 4 Chirodzo 2016-11-17 00:00:00         8        18 burntbricks         
 5 Chirodzo 2016-11-17 00:00:00         5        45 muddaub             
 6 Chirodzo 2016-11-17 00:00:00         6        23 sunbricks           
 7 Chirodzo 2016-11-17 00:00:00         3         8 burntbricks         
 8 Chirodzo 2016-11-17 00:00:00         7        29 muddaub             
 9 Chirodzo 2016-11-17 00:00:00         2         6 muddaub             
10 Chirodzo 2016-11-17 00:00:00         9         7 muddaub             
# … with 29 more rows
…
~~~
interviews_ch <- interviews %>%
    filter(village == "Chirodzo") %>%
    select(village:respondent_wall_type)

interviews_ch
~~~
{: .language-r}



~~~
# A tibble: 39 × 5
   village  interview_date      no_membrs years_liv respondent_wall_type
   <chr>    <dttm>                  <dbl>     <dbl> <chr>               
 1 Chirodzo 2016-11-16 00:00:00        12        70 burntbricks         
 2 Chirodzo 2016-11-16 00:00:00         8         6 burntbricks         
 3 Chirodzo 2016-12-16 00:00:00        12        23 burntbricks         
 4 Chirodzo 2016-11-17 00:00:00         8        18 burntbricks         
 5 Chirodzo 2016-11-17 00:00:00         5        45 muddaub             
 6 Chirodzo 2016-11-17 00:00:00         6        23 sunbricks           
 7 Chirodzo 2016-11-17 00:00:00         3         8 burntbricks         
 8 Chirodzo 2016-11-17 00:00:00         7        29 muddaub             
 9 Chirodzo 2016-11-17 00:00:00         2         6 muddaub             
10 Chirodzo 2016-11-17 00:00:00         9         7 muddaub             
# … with 29 more rows
…
>
> > ## Solution
> >
> > 
> > ~~~
> > interviews %>%
> >     filter(memb_assoc == "yes") %>%
> >     select(affect_conflicts, liv_count, no_meals)
> > ~~~
> > {: .language-r}
> > 
> > 
> > 
> > ~~~
> > # A tibble: 33 × 3
> >    affect_conflicts liv_count no_meals
> >    <chr>                <dbl>    <dbl>
> >  1 once                     3        2
> >  2 never                    2        2
> >  3 never                    2        3
> >  4 once                     3        2
> >  5 frequently               1        3
> >  6 more_once                5        2
> >  7 more_once                3        2
> >  8 more_once                2        3
> >  9 once                     3        3
> > 10 never                    3        3
> > # … with 23 more rows
…
~~~
interviews %>%
    mutate(people_per_room = no_membrs / rooms)
~~~
{: .language-r}



~~~
# A tibble: 131 × 15
   key_ID village interview_date      no_membrs years_liv respondent_wall… rooms
    <dbl> <chr>   <dttm>                  <dbl>     <dbl> <chr>            <dbl>
 1      1 God     2016-11-17 00:00:00         3         4 muddaub              1
 2      1 God     2016-11-17 00:00:00         7         9 muddaub              1
 3      3 God     2016-11-17 00:00:00        10        15 burntbricks          1
 4      4 God     2016-11-17 00:00:00         7         6 burntbricks          1
 5      5 God     2016-11-17 00:00:00         7        40 burntbricks          1
 6      6 God     2016-11-17 00:00:00         3         3 muddaub              1
 7      7 God     2016-11-17 00:00:00         6        38 muddaub              1
 8      8 Chirod… 2016-11-16 00:00:00        12        70 burntbricks          3
 9      9 Chirod… 2016-11-16 00:00:00         8         6 burntbricks          1
10     10 Chirod… 2016-12-16 00:00:00        12        23 burntbricks          5
# … with 121 more rows, and 8 more variables: memb_assoc <chr>,
#   affect_conflicts <chr>, liv_count <dbl>, items_owned <chr>, no_meals <dbl>,
#   months_lack_food <chr>, instanceID <chr>, people_per_room <dbl>
…
~~~
interviews %>%
    filter(!is.na(memb_assoc)) %>%
    mutate(people_per_room = no_membrs / rooms)
~~~
{: .language-r}



~~~
# A tibble: 92 × 15
   key_ID village interview_date      no_membrs years_liv respondent_wall… rooms
    <dbl> <chr>   <dttm>                  <dbl>     <dbl> <chr>            <dbl>
 1      1 God     2016-11-17 00:00:00         7         9 muddaub              1
 2      7 God     2016-11-17 00:00:00         6        38 muddaub              1
 3      8 Chirod… 2016-11-16 00:00:00        12        70 burntbricks          3
 4      9 Chirod… 2016-11-16 00:00:00         8         6 burntbricks          1
 5     10 Chirod… 2016-12-16 00:00:00        12        23 burntbricks          5
 6     12 God     2016-11-21 00:00:00         7        20 burntbricks          3
 7     13 God     2016-11-21 00:00:00         6         8 burntbricks          1
 8     15 God     2016-11-21 00:00:00         5        30 sunbricks            2
 9     21 God     2016-11-21 00:00:00         8        20 burntbricks          1
10     24 Ruaca   2016-11-21 00:00:00         6         4 burntbricks          2
# … with 82 more rows, and 8 more variables: memb_assoc <chr>,
#   affect_conflicts <chr>, liv_count <dbl>, items_owned <chr>, no_meals <dbl>,
#   months_lack_food <chr>, instanceID <chr>, people_per_room <dbl>
…
~~~
interviews %>%
  select(key_ID, village, interview_date, instanceID)
~~~
{: .language-r}



~~~
# A tibble: 131 × 4
   key_ID village  interview_date      instanceID                               
    <dbl> <chr>    <dttm>              <chr>                                    
 1      1 God      2016-11-17 00:00:00 uuid:ec241f2c-0609-46ed-b5e8-fe575f6cefef
 2      1 God      2016-11-17 00:00:00 uuid:099de9c9-3e5e-427b-8452-26250e840d6e
 3      3 God      2016-11-17 00:00:00 uuid:193d7daf-9582-409b-bf09-027dd36f9007
 4      4 God      2016-11-17 00:00:00 uuid:148d1105-778a-4755-aa71-281eadd4a973
 5      5 God      2016-11-17 00:00:00 uuid:2c867811-9696-4966-9866-f35c3e97d02d
 6      6 God      2016-11-17 00:00:00 uuid:daa56c91-c8e3-44c3-a663-af6a49a2ca70
 7      7 God      2016-11-17 00:00:00 uuid:ae20a58d-56f4-43d7-bafa-e7963d850844
 8      8 Chirodzo 2016-11-16 00:00:00 uuid:d6cee930-7be1-4fd9-88c0-82a08f90fb5a
 9      9 Chirodzo 2016-11-16 00:00:00 uuid:846103d2-b1db-4055-b502-9cd510bb7b37
10     10 Chirodzo 2016-12-16 00:00:00 uuid:8f4e49bc-da81-4356-ae34-e0d794a23721
# … with 121 more rows
…
